<?xml version="1.0" encoding="utf-8"?>
<!-- Generator: Adobe Illustrator 15.0.2, SVG Export Plug-In . SVG Version: 6.00 Build 0)  -->
<!DOCTYPE svg PUBLIC "-//W3C//DTD SVG 1.1//EN" "http://www.w3.org/Graphics/SVG/1.1/DTD/svg11.dtd">
<svg version="1.1"
	 id="Layer_1" xmlns:ev="http://www.w3.org/2001/xml-events" xmlns:v="http://schemas.microsoft.com/visio/2003/SVGExtensions/"
	 xmlns="http://www.w3.org/2000/svg" xmlns:xlink="http://www.w3.org/1999/xlink" x="0px" y="0px" width="203.523px"
	 height="40.82px" viewBox="18.244 18.24 203.523 40.82" enable-background="new 18.244 18.24 203.523 40.82" xml:space="preserve">
<v:documentProperties  v:langID="1033" v:metric="true" v:viewMarkup="false">
	<v:userDefs>
		<v:ud  v:nameU="msvSubprocessMaster" v:prompt="" v:val="VT4(Box)"></v:ud>
		<v:ud  v:nameU="msvNoAutoConnect" v:val="VT0(1):26"></v:ud>
	</v:userDefs>
</v:documentProperties>
<g>
	<title>HI</title>
	
		<v:pageProperties  v:drawingScale="0.0393701" v:drawingUnits="24" v:shadowOffsetX="8.50394" v:pageScale="0.0393701" v:shadowOffsetY="-8.50394">
		</v:pageProperties>
	<g id="shape1-1" transform="translate(18.24,-18.24)">
		<title>Box.36</title>
		<v:userDefs>
			<v:ud  v:nameU="visVersion" v:val="VT0(14):26"></v:ud>
		</v:userDefs>
		<polygon fill="#D3D3AB" points="146.834,43.28 146.834,77.3 0.004,77.3 0.004,36.479 117.354,36.479 117.354,43.28 		"/>
	</g>
	<g id="shape2-3" transform="translate(135.594,-18.24)">
		<title>Box.37</title>
		<v:userDefs>
			<v:ud  v:nameU="visVersion" v:val="VT0(14):26"></v:ud>
		</v:userDefs>
	</g>
	<g id="shape3-5" transform="translate(172.445,-22.2085)">
		<title>Box.38</title>
		<v:userDefs>
			<v:ud  v:nameU="visVersion" v:val="VT0(14):26"></v:ud>
		</v:userDefs>
		<rect x="0" y="50.087" fill="#D3D3AB" width="19.842" height="27.213"/>
	</g>
	<g id="shape4-7" transform="translate(196.539,-22.2085)">
		<title>Box.39</title>
		<v:userDefs>
			<v:ud  v:nameU="visVersion" v:val="VT0(14):26"></v:ud>
		</v:userDefs>
		<rect x="0" y="50.087" fill="#D3D3AB" width="25.229" height="27.213"/>
	</g>
</g>
</svg>
