<svg xmlns="http://www.w3.org/2000/svg" xmlns:xlink="http://www.w3.org/1999/xlink" xmlns:ev="http://www.w3.org/2001/xml-events"
		xmlns:v="http://schemas.microsoft.com/visio/2003/SVGExtensions/" width="6.02256in" height="3.08128in"
		viewBox="0 0 433.624 221.852" xml:space="preserve" color-interpolation-filters="sRGB" class="st2">


<linearGradient id="anim"  fy="0">
      <stop offset="0" stop-color="#148F01">
		</stop>
		<stop offset=".7" stop-color="#46DF04">
		</stop>
    </linearGradient>
    
    		<g id="shape1-1" v:mID="1" v:groupContext="shape" transform="translate(0.375,-0.375)">
			<path  fill="url(#anim)"  stroke='rgba(49,163,0,0.7)' d="M432.87 221.85 L432.87 0.75 L0 0.75 L0 108.47 L85.04 108.47 L85.04 221.85 L432.87 221.85 Z" class="st1"/>
		</g>
</svg>
